{
  "photos": {
    "page": 1,
    "pages": 9622,
    "perpage": 24,
    "total": "230909",
    "photo": [
      {
        "id": "30812453968",
        "owner": "145693559@N04",
        "secret": "de7b62c41f",
        "server": "1843",
        "farm": 2,
        "title": "13 04 01 untitled 1082.jpg",
        "ispublic": 1,
        "isfriend": 0,
        "isfamily": 0
      },
      {
        "id": "44633751372",
        "owner": "145693559@N04",
        "secret": "0294ab32af",
        "server": "1865",
        "farm": 2,
        "title": "2013 0401 004 Sunset.jpg",
        "ispublic": 1,
        "isfriend": 0,
        "isfamily": 0
      },
      {
        "id": "42872396890",
        "owner": "23545965@N02",
        "secret": "a75766bd02",
        "server": "1856",
        "farm": 2,
        "title": "Addlestone sunset (20180912_1)",
        "ispublic": 1,
        "isfriend": 0,
        "isfamily": 0
      },
      {
        "id": "42872396500",
        "owner": "23545965@N02",
        "secret": "2291c05c8a",
        "server": "1870",
        "farm": 2,
        "title": "Addlestone sunset (20180912_2)",
        "ispublic": 1,
        "isfriend": 0,
        "isfamily": 0
      },
      {
        "id": "43962764444",
        "owner": "142146509@N05",
        "secret": "7df10df8cf",
        "server": "1895",
        "farm": 2,
        "title": "When you need to get away.",
        "ispublic": 1,
        "isfriend": 0,
        "isfamily": 0
      },
      {
        "id": "44678514181",
        "owner": "135358870@N02",
        "secret": "d07e154045",
        "server": "1873",
        "farm": 2,
        "title": "SunsetPalms",
        "ispublic": 1,
        "isfriend": 0,
        "isfamily": 0
      },
      {
        "id": "29739812377",
        "owner": "124718167@N08",
        "secret": "6316eebb5b",
        "server": "1883",
        "farm": 2,
        "title": "Naples Pier Sunset.",
        "ispublic": 1,
        "isfriend": 0,
        "isfamily": 0
      },
      {
        "id": "42864943660",
        "owner": "160139754@N08",
        "secret": "a8f4ce0ab0",
        "server": "1875",
        "farm": 2,
        "title": "Riflessi e Luce al Tramonto",
        "ispublic": 1,
        "isfriend": 0,
        "isfamily": 0
      },
      {
        "id": "42864464590",
        "owner": "142313011@N03",
        "secret": "fdc8857a9a",
        "server": "1896",
        "farm": 2,
        "title": "",
        "ispublic": 1,
        "isfriend": 0,
        "isfamily": 0
      },
      {
        "id": "44673816561",
        "owner": "131226561@N04",
        "secret": "1f86e81ebd",
        "server": "1867",
        "farm": 2,
        "title": "Grandpa's Not Well",
        "ispublic": 1,
        "isfriend": 0,
        "isfamily": 0
      },
      {
        "id": "43763357805",
        "owner": "153751713@N07",
        "secret": "64d2188df5",
        "server": "1890",
        "farm": 2,
        "title": "⛅ #sunset",
        "ispublic": 1,
        "isfriend": 0,
        "isfamily": 0
      },
      {
        "id": "44620103752",
        "owner": "59209156@N04",
        "secret": "5a052343be",
        "server": "1873",
        "farm": 2,
        "title": "The Evening Sky at Blackpool.",
        "ispublic": 1,
        "isfriend": 0,
        "isfamily": 0
      },
      {
        "id": "44617756012",
        "owner": "61955892@N04",
        "secret": "d587e7a617",
        "server": "1873",
        "farm": 2,
        "title": "Day's End",
        "ispublic": 1,
        "isfriend": 0,
        "isfamily": 0
      },
      {
        "id": "42852472130",
        "owner": "164559058@N03",
        "secret": "0da1eb5ab0",
        "server": "1844",
        "farm": 2,
        "title": "DAYS END!                             Right off the backyard we call home, our balcony looking West this past summer.",
        "ispublic": 1,
        "isfriend": 0,
        "isfamily": 0
      },
      {
        "id": "43943296904",
        "owner": "26059255@N08",
        "secret": "a3e0fb29a2",
        "server": "1874",
        "farm": 2,
        "title": "Sydney2018-534",
        "ispublic": 1,
        "isfriend": 0,
        "isfamily": 0
      },
      {
        "id": "42851616900",
        "owner": "26059255@N08",
        "secret": "a53e96afc0",
        "server": "1847",
        "farm": 2,
        "title": "Sydney2018-533",
        "ispublic": 1,
        "isfriend": 0,
        "isfamily": 0
      },
      {
        "id": "42851611530",
        "owner": "26059255@N08",
        "secret": "41f0636f17",
        "server": "1849",
        "farm": 2,
        "title": "Sydney2018-531",
        "ispublic": 1,
        "isfriend": 0,
        "isfamily": 0
      },
      {
        "id": "43943291904",
        "owner": "26059255@N08",
        "secret": "80b925b1ef",
        "server": "1881",
        "farm": 2,
        "title": "Sydney2018-530",
        "ispublic": 1,
        "isfriend": 0,
        "isfamily": 0
      },
      {
        "id": "42851607290",
        "owner": "26059255@N08",
        "secret": "293ba77bdd",
        "server": "1878",
        "farm": 2,
        "title": "Sydney2018-529",
        "ispublic": 1,
        "isfriend": 0,
        "isfamily": 0
      },
      {
        "id": "43943289114",
        "owner": "26059255@N08",
        "secret": "210cd0e4aa",
        "server": "1898",
        "farm": 2,
        "title": "Sydney2018-528",
        "ispublic": 1,
        "isfriend": 0,
        "isfamily": 0
      },
      {
        "id": "43752907075",
        "owner": "26059255@N08",
        "secret": "bd3a0792a9",
        "server": "1861",
        "farm": 2,
        "title": "Sydney2018-526",
        "ispublic": 1,
        "isfriend": 0,
        "isfamily": 0
      },
      {
        "id": "43943285894",
        "owner": "26059255@N08",
        "secret": "56e865674c",
        "server": "1864",
        "farm": 2,
        "title": "Sydney2018-525",
        "ispublic": 1,
        "isfriend": 0,
        "isfamily": 0
      },
      {
        "id": "43943284004",
        "owner": "26059255@N08",
        "secret": "518eb60ac1",
        "server": "1853",
        "farm": 2,
        "title": "Sydney2018-524",
        "ispublic": 1,
        "isfriend": 0,
        "isfamily": 0
      },
      {
        "id": "44684759971",
        "owner": "151102696@N08",
        "secret": "c6e18b73fc",
        "server": "1859",
        "farm": 2,
        "title": "New Zealand",
        "ispublic": 1,
        "isfriend": 0,
        "isfamily": 0
      }
    ]
  },
  "stat": "ok"
}
